"name","model","sku","quantity","price","weight"
"Boards - Budget 2mm Round 12D ","Boards - Budget 2mm Round 12D",,"45","100.0000","0.00000000"
"Xmas pick - Merry Christmas with Berry 10cm","00024132","00024132","18","250.0000","0.00000000"
"Pick 3D - Santa with Banner 5cm","00024133","00024133","18","200.0000","0.00000000"
"MIS 10","00022387","00022387","0","10.0000","0.00000000"
"Boards - Budget 2mm Square 9 x 9","Boards - Budget 2mm Square 9 x 9",,"45","70.0000","0.00000000"
"Boards - Budget 2mm Square 5 x 5","Boards - Budget 2mm Square 5 x 5",,"45","30.0000","0.00000000"
"Boards - Budget 2mm Square 6 x 6","Boards - Budget 2mm Square 6 x 6",,"45","40.0000","0.00000000"
"Boards - Budget 2mm Round 6D ","Boards - Budget 2mm Round 6D",,"45","40.0000","0.00000000"
"MIS 20","00022386","00022386","-4","20.0000","0.00000000"
"Pick 3D - Gift Box 4cm","00024140","00024140","118","160.0000","0.00000000"
"MIS 5","00022388","00022388","4","5.0000","0.00000000"
"Baking Tray - Rectangle 9 x 7 Tin","Baking Tray - Rectangle 9 x 7 Tin","00025388","0","500.0000","0.00000000"
"MIS 100","00022384","00022384","407","100.0000","0.00000000"
"Boards - Budget 2mm Square 10 x 10","Boards - Budget 2mm Square 10 x 10",,"45","80.0000","0.00000000"
"Pick 3D - Big Santa Asstd 7cm","00024143","00024143","17","350.0000","0.00000000"
"CROWN HAT  5 Pcs","00022449","00022449","10","390.0000","0.00000000"
"Boards - Budget 2mm Square 14 x 14","Boards - Budget 2mm Square 14 x 14",,"45","110.0000","0.00000000"
"Bakels - Diamond Glaze Dark Choc 5kg","15511","15511","0","0.0000","0.00000000"
"Boards - Budget 2mm Round 5D ","Boards - Budget 2mm Round 5D",,"45","30.0000","0.00000000"
"plastic tips CK - Open star # 15","745367114037","745367114037","25","100.0000","0.00000000"
"plastic tips CK - Leaf # 7","745367113962","745367113962","25","100.0000","0.00000000"
"Plastic tip # 88 - Garland Tube","745367186980","745367186980","25","100.0000","0.00000000"
"Baking Tray - Rectangle 10 x 8 Tin","00025387",,"2","600.0000","0.00000000"
"Baking Tray - Rectangle 10 x 8 Tin","00025387",,"2","600.0000","0.00000000"
"CHOC MOLD - Xmas Asst 42 cavities","904124","904124","23","0.0000","0.00000000"
"Candles - GOLD 8cm x 10 with holders","9328710093695","9328710093695","18","290.0000","0.00000000"
"CHOC COOKIE MOLD - Shells Asst Cookie mold","90161283","90161283","12","590.0000","0.00000000"
"Sugared Almonds WHITE 500g","25","25","3","2900.0000","0.00000000"
"Amerimist Airbrush Color 20g - Yellow Sheen"," 680218000773"," 680218000773","2","650.0000","0.00000000"
"Wilton, Mini Safety Pins - MULTI","70896113429","70896113429","3","200.0000","0.00000000"
"Baking papers LACY 30cm x 300m","00002256","00002256","3","1900.0000","0.00000000"
"Wooden Picks - We Still Do","00022825",,"2","0.0000","0.00000000"
"Sugared Almonds BLUE 500g","2285","2285","2","2900.0000","0.00000000"
"Buttons Pop It Mold Set Of 2 - JEM","00022447","00022447","0","800.0000","0.00000000"
"Flower &amp; Leaf Glaze - 1ltr","00022308","00022308","1","6838.0000","0.00000000"
"Bowl/edge scrapers set of 3  ","check out of stock k","00022688","0","560.0000","0.00000000"
"Edible Ink Black 100ml","85646","85646","0","0.0000","0.00000000"
"Sugared Almonds GOLD 500g","225589","225589","0","4400.0000","0.00000000"
"FONDANT IMPRESSION MAT - FLOWERS","618","618","0","490.0000","0.00000000"
"KING CAKE LIFTER Stainless steel","9988543","9988543","0","2700.0000","0.00000000"
"Imp Mat- Paisley CK","638","638","0","490.0000","0.00000000"
"Liqueur - Cherry Brandy 1ltr","1458783201","1458783201","0","4200.0000","0.00000000"
"Bakels - Red Velvet Cake Mix 10kg","14681","14681","0","0.0000","0.00000000"
"Bakels - American Muffin Mix 15kg","14641","14641","1","0.0000","0.00000000"
"Bakels - Diamond Glaze Gold 5kg","15521","15521","0","0.0000","0.00000000"
"Bakels - Diamond Glaze Neutral 5kg","15541","15541","1","0.0000","0.00000000"
"Bakels - Diamond Glaze Silver 5kg","15531","15531","0","0.0000","0.00000000"
"Bakels - Pettina Sponge Vanilla Mix - 25kg","14661","14661","0","0.0000","0.00000000"
"bakels - Chocolate Chips cake Mix - 5kg","bakels - Chocolate Chips cake Mix - 5kg","14651","0","0.0000","0.00000000"
"bakels - Pettina Chocolate Sponge Mix - 25kg","14671","14671","0","0.0000","0.00000000"
"Sugared Almonds PINK 500g","2385","2385","0","2900.0000","0.00000000"
"Choc Buttons - DARK 1kg","54678","54678","2","1450.0000","0.00000000"
"Choc Buttons - WHITE 1kg","4796010610105","4796010610105","5","1450.0000","0.00000000"
"Choc Chips - WHITE 1kg","4796010610099","4796010610099","4","1450.0000","0.00000000"
"Sugar Flower Glue - 1ltr","00022291","00022291","0","1.0000","0.00000000"
"Patchwork Cutters- Butterfly (Black)","00022446","00022446","0","1450.0000","0.00000000"
"Vampire Teeth Lollies 500g","00022610","00022610","0","1450.0000","0.00000000"
"Test 1","1980","1980","0","100.0000","0.00000000"
"Buttercream Icing - 425g CHOC","745367321596","745367321596","0","1200.0000","0.00000000"
"Buttercream Icing - 425g GREEN","74536732050","74536732050","0","1200.0000","0.00000000"
"Buttercream Icing - 425g LILAC","1454117249","1454117249","0","970.0000","0.00000000"
"Buttercream Icing - 425g RED","745367320513","745367320513","0","1200.0000","0.00000000"
"Cake Stand- Ceramic(without base)","903","903","0","1000.0000","0.00000000"
"Buttercream icing - 425g YELLOW","745367320520","745367320520","0","970.0000","0.00000000"
"Clear Boxes - Cube - 8*8*8cm FORMING","928","928","0","10.0000","0.00000000"
"CMC POWDER (Tylose) - 18g","check out of stock","48649","0","760.0000","0.00000000"
"Lace Mats by Claire Bowman- Sweet Hearts","1458643633","1458643633","0","3700.0000","0.00000000"
"Baking paper sheets x 5 - (30cm x 45cm)","2648","2648","0","100.0000","0.00000000"
"Boards - Budget 2mm Square 7.5 x 7.5","Boards - Budget 2mm Square 7.5 x 7.5",,"45","50.0000","0.00000000"
"Choc Chips - DARK 1kg","54534","54534","1","1450.0000","0.00000000"
"Choc Buttons - MILK 1kg","00004085","00004085","4","1450.0000","0.00000000"
"Choc Chips - MILK 1kg","489494655165","489494655165","0","1450.0000","0.00000000"
"Tartlet shells - Chocolate Mini x 10","00022813","00022813","4","390.0000","0.00000000"
"CHOC MOLD - Old English Q-Z ","9014272","9014272","7","590.0000","0.00000000"
"CHOC MOLD - Letters 1.25","9014227","9014227","4","590.0000","0.00000000"
"Boards Square 7x7cm - GOLD tab","Boards Square 7x7cm - GOLD tab","1978","35","20.0000","0.00000000"
"Boards Square 9x9cm - GOLD tab","Boards Square 9x9cm - GOLD tab","1979","7","25.0000","0.00000000"
"Small Dowels 8cm x 3mm","00025302","00025302","313","22.0000","0.00000000"
"Pick 3D - Santa Cottage 3x6cm","00024134","00024134","13","200.0000","0.00000000"
"Xmas pick - Merry Christmas GOLD 8cm","00024130","00024130","11","260.0000","0.00000000"
"COOKIE CUTTER S/Steel- Egg 2'","check item image????","871458000740","32","299.0000","0.00000000"
"CDN Thermometer - Oven 150 - 550F","018436002512","018436002512","20","1950.0000","0.00000000"
"Xmas pick - Merry Christmas GOLD & RED 10cm","00024129","00024129","8","250.0000","0.00000000"
"Wooden Picks - Merry Christmas with Snowflake","check image size nd","00024051","4","950.0000","0.00000000"
"picks - Happy Birthday LARGE - BLUE color","check out of stock k","1458116449","3","250.0000","0.00000000"
"flavour - MARASHINO - 1Ltr ~WS~","299","299","0","7900.0000","0.00000000"
"PICKS - Happy B'day Scroll - GOLD 4cm","check out of stock k","346","0","200.0000","0.00000000"
"Baking Tray Nonstick Springform Square 10x3","9341102379382","9341102379382","0","1800.0000","0.00000000"
"CHOC MOLD - Cracked Egg5-1/2 3D","9023566","9023566","0","590.0000","0.00000000"
"White Confetti Dots 25g","check out of stock k","5060412513623","0","160.0000","0.00000000"
"White Confeti Sequins 25g","check out of stock k","5060412513449","-3","160.0000","0.00000000"
"MIS 50","00022385","00022385","760","50.0000","0.00000000"
"Amerimist Airbrush Color 20g - Orange","680218000193","680218000193","-1","600.0000","0.00000000"
"Boards - Budget 2mm Square 12 x 12","Boards - Budget 2mm Square 12 x 12",,"45","100.0000","0.00000000"
"Baking Tray - Rectangle 12 x 10 Tin","Baking Tray - Rectangle 12 x 10 Tin","00025385","0","800.0000","0.00000000"
"Baking Tray - Rectangle 10 x 8 Tin","00025387",,"2","600.0000","0.00000000"
"A4 Wafer Paper - Blank PINK ","00002146","00002146","0","400.0000","0.00000000"
"A to Z Cutter Plastic 40pcs","A to Z Cutter Plastic 40pcs","5060399817134","1","750.0000","0.00000000"
"Boards - Budget 2mm Round 14D ","Boards - Budget 2mm Round 14D",,"45","110.0000","0.00000000"
"COOKIE CUTTER S/STEEL - Ginger bread man 5' ","871458003161","871458003161","5","299.0000","0.00000000"
"Nozzle - No 0 LOYAL Round Standard S/S","00024884","00024884","4","270.0000","0.00000000"
"Baking Tray - SHAPED NO 1","check OUT OF STOCK","11670","0","990.0000","0.00000000"
"Lustre Dust - CK - Pink Sherbet 2g ","check image","745367351005","29","1350.0000","0.00000000"
"Stamens - Pearl White 15pcs","00025245","00025245","25","80.0000","0.00000000"
"Liners 550 17 a stack  - PURPLE HGP","00025394","00025394","44","180.0000","0.00000000"
"Nozzle -106 LOYAL Drop Flower Standard S/S","00024883","00024883","10","270.0000","0.00000000"
"Baking Tray - SHAPED NO 5","check OUT OF STOCK","83378","15","990.0000","0.00000000"
"Liners 550 17 a stack  - Green HGP","00025393","00025393","65","180.0000","0.00000000"
"Boards - Budget 2mm Round 8D ","Boards - Budget 2mm Round 8D",,"60","60.0000","0.00000000"
"Boards - Budget 2mm Round 10D ","Boards - Budget 2mm Round 10D",,"45","80.0000","0.00000000"
"plastic tips CK - round opening # 6","745367113955","745367113955","24","100.0000","0.00000000"
"plastic tips CK - Open star # 16","745367114044","745367114044","24","100.0000","0.00000000"
"Nozzle - 195 LOYAL Drop Flower Medium S/S","00025282","00025282","23","490.0000","0.00000000"
"COOKIE CUTTER S/Steel- Cup cake mini - 2.5cm","00025225","00025225","23","299.0000","0.00000000"
"plastic tips CK - round opening # 4","745367113931","745367113931","23","100.0000","0.00000000"
"plastic tips CK - round opening # 5","745367113948","745367113948","23","100.0000","0.00000000"
"plastic tips CK - round opening # 12","745367114013","745367114013","23","100.0000","0.00000000"
"Icing Shapes - 30g American STAR MIX - MINI ","570","570","20","160.0000","0.00000000"
"COOKIE CUTTER S/Steel- Holly Cross New 11cm","COOKIE CUTTER S/Steel- Holly Cross New 11cm","871458002829","22","299.0000","0.00000000"
"plastic tips CK - Open star # 22","745367114105","745367114105","22","100.0000","0.00000000"
"Glitter Picks - Love 10cm","00025303","00025303","18","200.0000","0.00000000"
"COOKIE CUTTER S/Steel- Paw Print Mini 2.5cm","00025222","00025222","21","299.0000","0.00000000"
"plastic tips CK - Open star # 32","745367114136","745367114136","21","100.0000","0.00000000"
"Nozzle - 32 LOYAL Open Star S/S","00025288","00025288","18","270.0000","0.00000000"
"COOKIE CUTTER S/Steel- Sitting Bunny 8cm","871458000757","871458000757","19","299.0000","0.00000000"
"plastic tips CK - round opening # 8","745367113979","745367113979","20","100.0000","0.00000000"
"plastic tips CK - Open star # 19","745367114075","745367114075","20","100.0000","0.00000000"
"plastic tips CK - Open star # 14","745367114020","745367114020","20","100.0000","0.00000000"
"plastic tips CK - Petal # 103","745367114211","745367114211","20","100.0000","0.00000000"
"plastic tips CK - Open star # 21","745367114099","745367114099","14","100.0000","0.00000000"
"Liners 550 20 a stack  - White Dots HGP","00025166","00025166","16","220.0000","0.00000000"
"plastic tips CK - grass # 233","745367114266","745367114266","19","100.0000","0.00000000"
"Lustre Dust - CK - Red Rose 7g ","check image","745367371966","18","1350.0000","0.00000000"
"plastic tips CK - Leaf # 67","745367114174","745367114174","18","100.0000","0.00000000"
"Cashous Mini Hearts - Silver 30g 14mm","00025434","00025434","15","220.0000","0.00000000"
"Icing Sugar Premium Peacock 1kg","00025198","00025198","10","250.0000","0.00000000"
"Figure - Flynn Rider 11cm Disney Tangled","4007176124178","4007176124178","1","1550.0000","0.00000000"
"Nozzle - 1F China","00025444","00025444","12","250.0000","0.00000000"
"Hearts Candles Gold ( Each )","5060281180483","5060281180483","13","130.0000","0.00000000"
"Lustre Dust - CK - Pink Salmon 7g ","check image","745367371881","12","1350.0000","0.00000000"
"Sugar Pearls 30g - 10mm White","00025432","00025432","9","220.0000","0.00000000"
"Scraper Ganache - Metal ( Medium ) 18cm x 8cm","609015574874","609015574874","8","1900.0000","0.00000000"
"Liners 398 17 a stack - ASSORTED LOCAL","00025330","00025330","0","150.0000","0.00000000"
"Blossom Tint - Sugarflair 7ml - Brown","Blossom Tint - Sugarflair 7ml - Brown","0702811589926","10","690.0000","0.00000000"
"Blossom Tint - Sugarflair 7ml - Petal Blue","0702811589858","0702811589858","10","620.0000","0.00000000"
"Blossom Tint - Sugarflair 7ml - Heather","Blossom Tint - Sugarflair 7ml - Heather","0702811589896","10","620.0000","0.00000000"
"Blossom Tint - Sugarflair 7ml - Pillar Box Red","0634158712869","0634158712869","10","620.0000","0.00000000"
"PME Half Ball Molds Set of 3","00025405","00025405","10","450.0000","0.00000000"
"Blossom Tint - Sugarflair 7ml - Burgundy","0702811589759","0702811589759","10","620.0000","0.00000000"
"Silicone Cupcake Baking Cups x 6","97","97","6","750.0000","0.00000000"
"CHOC MOLD - Heart ","CHECK ITEM IMAGE","9010113","10","590.0000","0.00000000"
"Stencil - Floral 30cm x 10cm","check image","00025306","10","550.0000","0.00000000"
"Nozzle - 26 LOYAL Closed Star Standard S/S","00024873","00024873","8","270.0000","0.00000000"
"Loyal - Rolling Pin 50cm with Pin Guides","9341671009581","9341671009581","9","4200.0000","0.00000000"
"Sugarflair  - Liquorice Spectral Concentrated Paste Color 25g","0610370673478","0610370673478","4","600.0000","0.00000000"
"Stencil - Flower Quilt 38cm x 17cm","check image","00025459","9","750.0000","0.00000000"
"Sugarflair  - Claret Spectral Concentrated Paste color 25g","0610370673256","0610370673256","8","600.0000","0.00000000"
"Fmm - Mommy &amp; Baby Giraffe Cutter Set 2","5060040864432","5060040864432","8","1450.0000","0.00000000"
"Edible GOLD LEAF CK-23kt Book of 5 sheets 3 1/8x 3 1/8""","00025243","00025243","8","4500.0000","0.00000000"
"Stainlesss Steel - Cake Slicer/ Server","00025398","00025398","7","1200.0000","0.00000000"
"FMM - Curved Words Cutter - Love","5060040864456","5060040864456","7","1350.0000","0.00000000"
"Plunger Cutter Pink Plastic set of 3 Design","00025261","00025261","7","350.0000","0.00000000"
"Quilt Embosser - Gucci","00025331","00025331","7","650.0000","0.00000000"
"Measuring Spoons Heavy Duty Set of 3","9341671005606","9341671005606","7","1250.0000","0.00000000"
"Renshaw - Carnation Red Modelling Paste 250g","5010301318709","5010301318709","7","1200.0000","0.00000000"
"Candles No 6 - GLITTER GOLD","Candles No 6 - GLITTER GOLD","00025452","6","150.0000","0.00000000"
"Candles No 8 - GLITTER GOLD","check image","00025454","5","150.0000","0.00000000"
"Candles No 5 - GLITTER GOLD","Candles No 5 - GLITTER GOLD","00025451","4","150.0000","0.00000000"
"Sugarflair - Airbrush Cleanerg Liquid 60ml","0702811591127","0702811591127","6","890.0000","0.00000000"
"PME - Gel paste Colour Hot Pink 25g","5060281183194","5060281183194","4","590.0000","0.00000000"
"Doll Pick, Local- Large","070896281029","070896281029","5","750.0000","0.00000000"
"Glitter Picks - Heart with Arrow","00025471","00025471","5","200.0000","0.00000000"
"Candles No 9 - GLITTER GOLD","Candles No 9 - GLITTER GOLD","00025455","5","150.0000","0.00000000"
"Foam Dummies - 13 x 1 Round 	","Foam Dummies - 13 x 1 Round 	","00026259","2","140.0000","0.00000000"
"Candles No 4 - GLITTER GOLD","Candles No 4 - GLITTER GOLD","00025450","5","150.0000","0.00000000"
"Loyal Cake Leveller + 2 Wires","9341671009512","9341671009512","4","1600.0000","0.00000000"
"Sugarflair  - Gold Satin Concentrated Paste Color 25g","0702811590946","0702811590946","3","690.0000","0.00000000"
"Exactor Knife B Grade","00025160","00025160","3","590.0000","0.00000000"
"Loyal  Paste Extruder - Including Screw ,Gasket & 20 Discs","9341671009703","9341671009703","5","4490.0000","0.00000000"
"Loyal - No 9 FLOWER NAIL","00025280","00025280","5","270.0000","0.00000000"
"Stencil - Floral Rose Springs Lace 43cm x 17cm","check image","00025310","5","690.0000","0.00000000"
"Nozzle - 234 LOYAL Grass Medium S/S ","00024839","00024839","4","450.0000","0.00000000"
"Stencil - Conversation Love Cookie  Countess 15cm x 15cm","check image","00025191","4","1250.0000","0.00000000"
"PME - Gel paste Colour Brick Red 25g","5060281183156","5060281183156","5","590.0000","0.00000000"
"Stencil - Dotted Garland 30cm x 10cm","check image","00025304","4","550.0000","0.00000000"
"Stencil - Dotted Garland With Tazzle 30cm x 10cm","check image","00025305","4","550.0000","0.00000000"
"Candles No 2 - GLITTER GOLD","Candles No 2 - GLITTER GOLD","00025448","1","150.0000","0.00000000"
"Candles No 7 - GLITTER GOLD","Candles No 7 - GLITTER GOLD","00025453","3","150.0000","0.00000000"
"Stencil sets - Chandelier - 3 ","check image","00025460","4","590.0000","0.00000000"
"Stencil - Horse Carriage 39cm x 16cm","check image","00025462","4","690.0000","0.00000000"
"Candles No 0 - GLITTER GOLD","Candles No 0 - GLITTER GOLD","00025446","4","150.0000","0.00000000"
"Blossom Tint - Sugarflair 7ml - Raspberry","check item????","12473","4","890.0000","0.00000000"
"Ribbon - Red and gold, 1 inch","4845454","4845454","3","350.0000","0.00000000"
"blank barcode test***TEST 2***","2433","2433","3","1500.0000","0.00000000"
"PME Oval Cutter Set of 6  (17cm)","5060281180155","5060281180155","2","950.0000","0.00000000"
"Script Lower Case 1.5cm Tappit Set Fmm","5060040861349","5060040861349","3","1799.0000","0.00000000"
"Figure -Tinkerbell & Blaze 5cm Disney","4007176123942","4007176123942","3","1650.0000","0.00000000"
"Stencil - Snowflakes set of 3 (9cm)","check image","6009704797029","3","950.0000","0.00000000"
"Stencil - Moroccan Cookie Countess 14cm x 14cm","check image","00025192","3","1490.0000","0.00000000"
"Baking Tray - ROUND  5 X 2 TIN","00025249","00025249","12","250.0000","0.00000000"
"Nozzle - 15 LOYAL Pastry Tube Star S/S","00025291","00025291","3","490.0000","0.00000000"
"Stencil - Floral Hearts Lace 25cm x 22cm","check image","00025308","3","1990.0000","0.00000000"
"Electronic Kitchen Scale","00025327","00025327","2","1250.0000","0.00000000"
"Stencil - Rose Spray 38cm x 11cm","check image","00025463","3","690.0000","0.00000000"
"Ribbon - 1/2in red and gold","486465","486465","2","250.0000","0.00000000"
"Ribbon - SILVER 30inch","00084845","00084845","2","70.0000","0.00000000"
"Sixlets Blue 500g","check achini wholesale","00025162","2","2850.0000","0.00000000"
"Sixlets Shimmer Orange 500g","check achini wholesale ","00025163","2","2850.0000","0.00000000"
"Fmm -Fairytale Motifs Tappit Cutters","5060040864517","5060040864517","0","1800.0000","0.00000000"
"Disney Figure - Snow White 9cm Disney","4007176124024","4007176124024","2","1650.0000","0.00000000"
"Figure - Pluto 5cm Disney Mickeymouse","4007176153475","4007176153475","2","1450.0000","0.00000000"
"Figure - Squirt the Turtle 4cm Disney Nemo","4007176126189","4007176126189","2","1500.0000","0.00000000"
"Figure -Princes Cinderella Wedding Dress 12cm","40071761305006","40071761305006","2","1750.0000","0.00000000"
"Stencil - Princess Silhouette set 4   15cm x 15cm","check image","00025190","2","1250.0000","0.00000000"
"Icing Sugar Premium Peacock 2.5kg","00025197","00025197","2","525.0000","0.00000000"
"Piping Bags - Silicon Blue","00025323",,"1","290.0000","0.00000000"
"Wooden Picks - Twenty One","00025246","00025246","2","1050.0000","0.00000000"
"Nozzle - No3 LOYAL Star Pastry Tube S/S","00025283","00025283","2","490.0000","0.00000000"
"Nozzle - 17 LOYAL Pastry Tube Star S/S","00025290","00025290","1","490.0000","0.00000000"
"Stencil - Filigree 30cm x 10cm","check image","00025307","2","550.0000","0.00000000"
"Stencil - Fleur Quilt Lace 40cm x 17cm","check image","00025311","2","1990.0000","0.00000000"
"Baking Tray - Rectangle 10 x 8 Tin","Baking Tray - Rectangle 10 x 8 Tin","00025387","0","600.0000","0.00000000"
"Stencil - Wedding Couples 3  25cm x 10cm","check image","00025461","1","750.0000","0.00000000"
"Baking Tray - Rectangle 8 x 6 Tin","Baking Tray - Rectangle 8 x 6 Tin","00025389","2","400.0000","0.00000000"
"Nozzle Local  Set of 26 With Coupler - China","00025441","00025441","0","2500.0000","0.00000000"
"Waffle Tubs - 15 pcs","00025391","00025391","9","220.0000","0.00000000"
"Renshaw Royal Icing Ready To use - 400g","5010301058605","5010301058605","0","950.0000","0.00000000"
"PME - Gel paste Colour Plum Pink 25g","5060281183170","5060281183170","1","590.0000","0.00000000"
"Candles No 1 - GLITTER GOLD","check image","00025447","0","150.0000","0.00000000"
"Sixlets Shimmer Pink 500g","check achini wholesale","00025397","1","2950.0000","0.00000000"
"Wooden Picks - Happy Birthday Design 3","00025475","00025475","18","1000.0000","0.00000000"
"Meadowlea Butter - 5kg","00025469","00025469","1","2500.0000","0.00000000"
"Glitter Picks - Best Mom Ever 10cm","00025457","00025457","0","550.0000","0.00000000"
"Impression Mats Floral Border  Set 3","Check item image????????","00025458","8","990.0000","0.00000000"
"Disney Figure - 13cm Maui - Moana","4007176131862","4007176131862","1","2200.0000","0.00000000"
"Disney Figure - 10cm  Coronation Anna","4007176129678","4007176129678","1","1650.0000","0.00000000"
"Sixlets Silver 500g","check achini wholesale","00025164","1","2850.0000","0.00000000"
"Edible pen set of 6 & Fine Bold  - PME","5060281189066","5060281189066","1","2600.0000","0.00000000"
"Script Upper Case & Number 2cm Tappit set Fmm","5060040861332","5060040861332","1","2199.0000","0.00000000"
"Edible Silver LEAF CK-Book of 5 sheets 3 3/4x 3 3/4""","00025244","00025244","1","2400.0000","0.00000000"
"PME - Gel paste Colour Ocean Blue 25g","5060281183224","5060281183224","6","590.0000","0.00000000"
"Baking papers LACY 45cm x 100m ( Extra wide )","8888417002631","8888417002631","7","2600.0000","0.00000000"
"Baking Tray - Rectangle 9 x 11 Tin","Baking Tray - Rectangle 9 x 11 Tin","00025386","1","700.0000","0.00000000"
"Figure - Princes Arial 10cm Disney Mermaid","4007176123119","4007176123119","0","1700.0000","0.00000000"
" Figure - 10cm Rapunzel With Comb","4007176124185","4007176124185","0","2200.0000","0.00000000"
"Baking Tray - Rectangle 10 x 8 Tin","00025387",,"2","600.0000","0.00000000"
"Wilton Nozzle - 10","00024589","00024589","0","150.0000","0.00000000"
"Crown Cutter Plastic 2pcs","check out of stock","00025161","0","549.0000","0.00000000"
"Jelly Beans - Mixed Pearlised 500g","00025165","00025165","0","1690.0000","0.00000000"
"Ribbon Rose 15g","00025167","00025167","0","150.0000","0.00000000"
"Figure - Princes Jasmine 10cm Disney Aladdin","4007176124536","4007176124536","0","1550.0000","0.00000000"
"Stencil - Burlap Cookie Countess 14cm x 14cm","check image","00025193","0","1490.0000","0.00000000"
"Glitter Picks - Mr & Mrs 20cm Gold","00025248","00025248","0","950.0000","0.00000000"
"Plunger Cutter Pink Plastic set of 5 Design","3700392451011","3700392451011","10","350.0000","0.00000000"
"Stencil - Floral Fancy Lace 30cm x 21cm","check image","00025309","0","1990.0000","0.00000000"
"Liners 650 20 a stack  - ORANGE HGP","00025392","00025392","0","220.0000","0.00000000"
"Waffle Cones - 15 pcs","00025390","00025390","0","220.0000","0.00000000"
"Icing Shapes - 25g Easter Mix Big Bunny","12598","12598","0","160.0000","0.00000000"
"Icing Shapes- 450g Jingle Blend~WS~","1061","1061","0","1900.0000","0.00000000"
"Baking Tray 3D -  HEART","check delete item pos web","96","0","1100.0000","0.00000000"
"Chunky Funky Upper Case &amp; Number 2cm Tappit - Fmm","done","5060040863411","1","2200.0000","0.00000000"
"Candles No 3 - GLITTER GOLD","Candles No 3 - GLITTER GOLD","00025449","5","150.0000","0.00000000"
"COOKIE CUTTER PLASTIC set of 6- PINK 6 petal flower","check out of stock","118748","0","750.0000","0.00000000"
"Icing Shapes- 450g American Star Mix- Mini~WS~","1055","1055","5","1700.0000","0.00000000"
"Cake Decorating set - 6 Nozzle with piping Bag","done","6952111652651","5","350.0000","0.00000000"
"Icing Shapes- 450g Mini Easter Bunny Shapes~WS~","1064","1064","0","1700.0000","0.00000000"
"Blossom Tint - Sugarflair 7ml - Olive Green","check item and image?????","12416","0","890.0000","0.00000000"
"MIS 150","00003322","00003322","0","890.0000","0.00000000"
"Foam Dummies - 11 x 1 Round","Foam Dummies - 11 x 1 Round 	","00026257","5","100.0000","0.00000000"
"Foam Dummies - 10 x 1 Round 	","Foam Dummies - 10 x 1 Round 	","00026256","3","90.0000","0.00000000"
"Foam Dummies - 12 x 1 Round 	","Foam Dummies - 12 x 1 Round 	","00026258","5","120.0000","0.00000000"
" 	Foam Dummies - 14 x 1 Round"," 	Foam Dummies - 14 x 1 Round","00026260","4","150.0000","0.00000000"
"Foam Dummies - 3 x 1 Round 	","Foam Dummies - 3 x 1 Round 	","00026249","10","20.0000","0.00000000"
"Foam Dummies - 4 x 1 Round 	","Foam Dummies - 4 x 1 Round ","00026250","9","30.0000","0.00000000"
"Foam Dummies - 5 x 1 Round","Foam Dummies - 5 x 1 Round     ","00026251","10","40.0000","0.00000000"
"Foam Dummies - 6 x 1 Round","Foam Dummies - 6 x 1 Round","00026252","7","50.0000","0.00000000"
"Foam Dummies - 7 x 1 Round","Foam Dummies - 7 x 1 Round","00026253","8","60.0000","0.00000000"
"Foam Dummies - 8 x 1 Round","Foam Dummies - 8 x 1 Round","00026254","10","70.0000","0.00000000"
"Foam Dummies - 9 x 1 Round","Foam Dummies - 9 x 1 Round","00026255","5","80.0000","0.00000000"
"Lustre Dust - CK - Pink Rose 2g ","745367351012","745367351012","12","1350.0000","0.00000000"
"Nozzle - 172 LOYAL Drop Star Medium S/S","00025281","00025281","22","490.0000","0.00000000"
"Nozzle - No 80 LOYAL Speciality S/S","00025289","00025289","0","270.0000","0.00000000"
"Sugarflair  - Red Extra Concentrated Paste Color 42g","0610370673720","0610370673720","3","980.0000","0.00000000"
"Sugarflair  - Ice Blue Spectral Concentrated Paste Color 25g","0610370673409","0610370673409","8","600.0000","0.00000000"
"Sugarflair  - Khaki Spectral Concentrated Paste Color 25g","0610370673362","0610370673362","7","600.0000","0.00000000"
"Sugarflair  - Navy Spectral Concentrated Paste Color 25g","0610370673430","0610370673430","19","600.0000","0.00000000"
"Sugarflair  - Royal Blue Spectral Concentrated Paste Color 25g","0610370673928","0610370673928","18","600.0000","0.00000000"
"Sugarflair  - Strawberry Spectral Concentrated Paste Color 25g","0634158712913","0634158712913","5","600.0000","0.00000000"
"Sugarflair  - Velvet Red Spectral Concentrated Paste Color 25g","0610370673935","0610370673935","0","600.0000","0.00000000"
"Sugarflair  - Red Satin Concentrated Paste Color 25g","0702811590939","0702811590939","7","690.0000","0.00000000"
"Stencil - Princess Set Of 3 (9cm)","check image","6009704796961","10","950.0000","0.00000000"
